{
  "status": "done",
  "assets": {
    "122807dd2722f97b0086c4a22ae1689a.woff": {
      "name": "122807dd2722f97b0086c4a22ae1689a.woff",
      "path": "/Users/erlend/Projects/Pleio/account/themes/generic/static/bundles/122807dd2722f97b0086c4a22ae1689a.woff",
      "sourceFilename": "static/less/icons/icons-webfont.woff"
    },
    "13388373164d8fac53e1e719b7aa5ae6.ttf": {
      "name": "13388373164d8fac53e1e719b7aa5ae6.ttf",
      "path": "/Users/erlend/Projects/Pleio/account/themes/generic/static/bundles/13388373164d8fac53e1e719b7aa5ae6.ttf",
      "sourceFilename": "static/less/icons/icons-webfont.ttf"
    },
    "2409050716c7d2e85e71d73f0cede693.svg": {
      "name": "2409050716c7d2e85e71d73f0cede693.svg",
      "path": "/Users/erlend/Projects/Pleio/account/themes/generic/static/bundles/2409050716c7d2e85e71d73f0cede693.svg",
      "sourceFilename": "static/less/icons/icons-webfont.svg"
    },
    "608c6b00e3a6b2a9cbf8.ttf": {
      "name": "608c6b00e3a6b2a9cbf8.ttf",
      "path": "/Users/erlend/Projects/Pleio/account/themes/generic/static/bundles/608c6b00e3a6b2a9cbf8.ttf",
      "sourceFilename": "static/less/icons/icons-webfont.ttf"
    },
    "7448f7c8b70dcee849c9.eot": {
      "name": "7448f7c8b70dcee849c9.eot",
      "path": "/Users/erlend/Projects/Pleio/account/themes/generic/static/bundles/7448f7c8b70dcee849c9.eot",
      "sourceFilename": "static/less/icons/icons-webfont.eot"
    },
    "9767b15db9a0594c7106f072fdfc6ecc.eot": {
      "name": "9767b15db9a0594c7106f072fdfc6ecc.eot",
      "path": "/Users/erlend/Projects/Pleio/account/themes/generic/static/bundles/9767b15db9a0594c7106f072fdfc6ecc.eot",
      "sourceFilename": "static/less/icons/icons-webfont.eot"
    },
    "9f292436f842b5f5d55f.woff2": {
      "name": "9f292436f842b5f5d55f.woff2",
      "path": "/Users/erlend/Projects/Pleio/account/themes/generic/static/bundles/9f292436f842b5f5d55f.woff2",
      "sourceFilename": "static/less/icons/icons-webfont.woff2"
    },
    "b12e72710f446191c54f6f2efa857a02.woff2": {
      "name": "b12e72710f446191c54f6f2efa857a02.woff2",
      "path": "/Users/erlend/Projects/Pleio/account/themes/generic/static/bundles/b12e72710f446191c54f6f2efa857a02.woff2",
      "sourceFilename": "static/less/icons/icons-webfont.woff2"
    },
    "b5159aba5c0656216939.woff": {
      "name": "b5159aba5c0656216939.woff",
      "path": "/Users/erlend/Projects/Pleio/account/themes/generic/static/bundles/b5159aba5c0656216939.woff",
      "sourceFilename": "static/less/icons/icons-webfont.woff"
    },
    "d3d3f7faaad6fbf625c2.svg": {
      "name": "d3d3f7faaad6fbf625c2.svg",
      "path": "/Users/erlend/Projects/Pleio/account/themes/generic/static/bundles/d3d3f7faaad6fbf625c2.svg",
      "sourceFilename": "static/less/icons/icons-webfont.svg"
    },
    "web.css": {
      "name": "web.css",
      "path": "/Users/erlend/Projects/Pleio/account/themes/generic/static/bundles/web.css"
    },
    "web.css.map": {
      "name": "web.css.map",
      "path": "/Users/erlend/Projects/Pleio/account/themes/generic/static/bundles/web.css.map"
    },
    "web.js": {
      "name": "web.js",
      "path": "/Users/erlend/Projects/Pleio/account/themes/generic/static/bundles/web.js"
    },
    "web.js.map": {
      "name": "web.js.map",
      "path": "/Users/erlend/Projects/Pleio/account/themes/generic/static/bundles/web.js.map"
    }
  },
  "chunks": {
    "web": [
      "web.css",
      "web.js"
    ]
  }
}
