[
    {
        "model": "emailvalidator.emaildomaingroup",
        "pk": 3,
        "fields": {
            "name": "Government of Canada"
        }
    },
    {
        "model": "emailvalidator.emailregexvalidator",
        "pk": 1,
        "fields": {
            "regex": "^.*@.*\\.gc\\.ca$",
            "group_id": 3
        }
    },
    {
        "model": "emailvalidator.emailregexvalidator",
        "pk": 2,
        "fields": {
            "regex": "^.*@canada.ca$",
            "group_id": 3
        }
    }
]
